…
try
```

    ## # A tibble: 0 x 6
    ## # … with 6 variables: address <chr>, city <chr>, state <chr>, zip <chr>,
    ## #   longitude <dbl>, latitude <dbl>

``` r
s%>%distinct(s$abbreviation)
```

    ## # A tibble: 51 x 1
    ##    `s$abbreviation`
    ##    <chr>           
    ##  1 AL              
    ##  2 AK              
    ##  3 AZ              
    ##  4 AR              
    ##  5 CA              
    ##  6 CO              
    ##  7 CT              
    ##  8 DE              
    ##  9 FL              
    ## 10 GA              
    ## # … with 41 more rows
…
``` r
t=l %>% 
  mutate(country = case_when(
    state %in% s$abbreviation ~ "United States",
    TRUE ~ "Other")) %>% 
  filter(country != "Other")
t
```

    ## # A tibble: 895 x 7
    ##    address                city         state zip   longitude latitude country   
    ##    <chr>                  <chr>        <chr> <chr>     <dbl>    <dbl> <chr>     
    ##  1 793 W. Bel Air Avenue  "\nAberdeen" MD    21001     -76.2     39.5 United St…
    ##  2 3018 CatClaw Dr        "\nAbilene"  TX    79606     -99.8     32.4 United St…
    ##  3 3501 West Lake Rd      "\nAbilene"  TX    79601     -99.7     32.5 United St…
    ##  4 184 North Point Way    "\nAcworth"  GA    30102     -84.7     34.1 United St…
    ##  5 2828 East Arlington S… "\nAda"      OK    74820     -96.6     34.8 United St…
    ##  6 14925 Landmark Blvd    "\nAddison"  TX    75254     -96.8     33.0 United St…
    ##  7 909 East Frontage Rd   "\nAlamo"    TX    78516     -98.1     26.2 United St…
    ##  8 2116 Yale Blvd Southe… "\nAlbuquer… NM    87106    -107.      35.1 United St…
    ##  9 7439 Pan American Fwy… "\nAlbuquer… NM    87109    -107.      35.2 United St…
    ## 10 2011 Menaul Blvd Nort… "\nAlbuquer… NM    87107    -107.      35.1 United St…
    ## # … with 885 more rows

``` r
tt=d %>% 
  mutate(country = case_when(
    state %in% s$abbreviation ~ "United States",
    TRUE ~ "Other")) %>% 
  filter(country != "Other")
tt
```

    ## # A tibble: 1,643 x 7
    ##    address                city         state zip   longitude latitude country   
    ##    <chr>                  <chr>        <chr> <chr>     <dbl>    <dbl> <chr>     
    ##  1 2900 Denali            Anchorage    AK    99503    -150.      61.2 United St…
    ##  2 3850 Debarr Road       Anchorage    AK    99508    -150.      61.2 United St…
    ##  3 1929 Airport Way       Fairbanks    AK    99701    -148.      64.8 United St…
    ##  4 230 Connector Dr       Auburn       AL    36849     -85.5     32.6 United St…
    ##  5 224 Daniel Payne Driv… Birmingham   AL    35207     -86.8     33.6 United St…
    ##  6 900 16th St S, Common… Birmingham   AL    35294     -86.8     33.5 United St…
    ##  7 5931 Alabama Highway,… Cullman      AL    35056     -86.9     34.2 United St…
    ##  8 2190 Ross Clark Circle Dothan       AL    36301     -85.4     31.2 United St…
    ##  9 900 Tyson Rd           Hope Hull (… AL    36043     -86.4     32.2 United St…
    ## 10 4874 University Drive  Huntsville   AL    35816     -86.7     34.7 United St…
    ## # … with 1,633 more rows

### Fewest locations

Let’s test some of our data summary skills.

Which US state(s) has/ve the fewest Denny’s location?

``` r
a = count(tt,state)
a
```

    ## # A tibble: 51 x 2
    ##    state     n
    ##    <chr> <int>
    ##  1 AK        3
    ##  2 AL        7
    ##  3 AR        9
    ##  4 AZ       83
    ##  5 CA      403
    ##  6 CO       29
    ##  7 CT       12
    ##  8 DC        2
    ##  9 DE        1
    ## 10 FL      140
    ## # … with 41 more rows

**Response**: DE

Which US state(s) has/ve the fewest La Quinta locations?

``` r
a = count(t,state)
a
```

    ## # A tibble: 48 x 2
    ##    state     n
    ##    <chr> <int>
    ##  1 AK        2
    ##  2 AL       16
    ##  3 AR       13
    ##  4 AZ       18
    ##  5 CA       56
    ##  6 CO       27
    ##  7 CT        6
    ##  8 FL       74
    ##  9 GA       41
    ## 10 IA        4
    ## # … with 38 more rows
…
``` r
s = rename(s, state = abbreviation)
s
```

    ## # A tibble: 51 x 3
    ##    name        state    area
    ##    <chr>       <chr>   <dbl>
    ##  1 Alabama     AL     52420.
    ##  2 Alaska      AK    665384.
    ##  3 Arizona     AZ    113990.
    ##  4 Arkansas    AR     53179.
    ##  5 California  CA    163695.
    ##  6 Colorado    CO    104094.
    ##  7 Connecticut CT      5543.
    ##  8 Delaware    DE      2489.
    ##  9 Florida     FL     65758.
    ## 10 Georgia     GA     59425.
    ## # … with 41 more rows

``` r
b = count(t,state)
b
```

    ## # A tibble: 48 x 2
    ##    state     n
    ##    <chr> <int>
    ##  1 AK        2
    ##  2 AL       16
    ##  3 AR       13
    ##  4 AZ       18
    ##  5 CA       56
    ##  6 CO       27
    ##  7 CT        6
    ##  8 FL       74
    ##  9 GA       41
    ## 10 IA        4
    ## # … with 38 more rows

``` r
bb = s%>%
  left_join(b,by='state')

bb
```

    ## # A tibble: 51 x 4
    ##    name        state    area     n
    ##    <chr>       <chr>   <dbl> <int>
    ##  1 Alabama     AL     52420.    16
    ##  2 Alaska      AK    665384.     2
    ##  3 Arizona     AZ    113990.    18
    ##  4 Arkansas    AR     53179.    13
    ##  5 California  CA    163695.    56
    ##  6 Colorado    CO    104094.    27
    ##  7 Connecticut CT      5543.     6
    ##  8 Delaware    DE      2489.    NA
    ##  9 Florida     FL     65758.    74
    ## 10 Georgia     GA     59425.    41
    ## # … with 41 more rows

``` r
bb$persqmi = (bb$n / bb$area)*1000
bb
```

    ## # A tibble: 51 x 5
    ##    name        state    area     n  persqmi
    ##    <chr>       <chr>   <dbl> <int>    <dbl>
    ##  1 Alabama     AL     52420.    16  0.305  
    ##  2 Alaska      AK    665384.     2  0.00301
    ##  3 Arizona     AZ    113990.    18  0.158  
    ##  4 Arkansas    AR     53179.    13  0.244  
    ##  5 California  CA    163695.    56  0.342  
    ##  6 Colorado    CO    104094.    27  0.259  
    ##  7 Connecticut CT      5543.     6  1.08   
    ##  8 Delaware    DE      2489.    NA NA      
    ##  9 Florida     FL     65758.    74  1.13   
    ## 10 Georgia     GA     59425.    41  0.690  
    ## # … with 41 more rows
…
